…
This created a `tbl_df` or “tibble” named `HospAdminData`. These objects
print nicely in the RStudio window. You can view this new object by
simply typing the name into the script. Try it below.

``` r
HospAdminData
```

    ## # A tibble: 828 x 7
    ##    SubjectID Sex     Age PatientType BSI18DeprScoreR… DeathCause
    ##        <int> <chr> <int> <chr>                  <int> <chr>     
    ##  1      1001 2:Fe…    88 3:Hospital…                1 <NA>      
    ##  2      1004 1:Ma…    22 2:Hospital…                4 <NA>      
    ##  3      1006 2:Fe…    28 1:ED Disch…                5 <NA>      
    ##  4      1008 2:Fe…    65 1:ED Disch…                1 <NA>      
    ##  5      1018 1:Ma…    42 3:Hospital…                1 <NA>      
    ##  6      1017 1:Ma…    52 2:Hospital…                1 <NA>      
    ##  7      1022 2:Fe…    20 3:Hospital…                6 <NA>      
    ##  8      1023 1:Ma…    42 3:Hospital…                1 <NA>      
    ##  9      1025 2:Fe…    26 1:ED Disch…                1 <NA>      
    ## 10      1034 1:Ma…    36 3:Hospital…                1 <NA>      
    ## # ... with 818 more rows, and 1 more variable: DeathTimeSinceInj <chr>
…
